﻿0,768
50,715
100,645
150,631
200,588
250,576
300,567
350,562
400,554
450,526
500,548
550,542
600,544
650,540
700,541
750,543
800,543
850,540
900,541
950,545
1000,543
1050,543
1100,541
1150,532
1200,534
1250,562
1300,541
1350,531
1400,543
1450,541
1500,540
1550,539
1600,538
1650,536
1700,535
1750,534
1800,539
1850,546
1900,542
1950,542
2000,544
2050,540
2100,541
2150,543
2200,543
2250,540
2300,541
2350,545
2400,543
2450,543
2500,541
2550,532
2600,534
2650,562
2700,541
2750,531
2800,543
2850,541
2900,540
2950,539
3000,538
3050,536
3100,535
3150,534
3200,539
3250,546
3300,542
3350,545
3400,543
3450,543
3500,541
3550,532
3600,534
3650,562
3700,541
3750,538
3800,536
3850,535
3900,534
3950,539
4000,546
4050,542
4100,542
4150,544
4200,540
4250,541
4300,536
4350,535
4400,534
4450,539
4500,546
4550,542
4600,535
4650,543
4700,543
4750,541
4800,532
4850,534
4900,542
4950,536
5000,535
5050,534
5100,539
5150,546
5200,542
5250,545
5300,543
5350,543
5400,541
5450,532
5500,534
5550,538
5600,546
5650,547
5700,542
5750,546
5800,538
5850,536
5900,546
5950,542
6000,545
6050,543
6100,543
6150,541
6200,532
6250,534
6300,538
6350,546
6400,547
6450,542
6500,546
6550,538
6600,535
6650,546
6700,542
6750,542
6800,544
6850,540
6900,541
6950,536
7000,535
7050,534
7100,539
7150,546
7200,542
7250,535
7300,543
7350,543
7400,541
7450,532
7500,534
7550,542
7600,536
7650,535
7700,534
7750,539
7800,546
7850,542
7900,545
7950,543
8000,548
8050,548
8100,541
8150,537
8200,536
8250,542
8300,537
8350,552
8400,543
8450,546
8500,540
8550,537
8600,543
8650,546
8700,540
8750,537
8800,539
8850,546
8900,542
8950,535
9000,543
9050,543
9100,541
9150,532
9200,534
9250,542
9300,536
9350,535
9400,534
9450,539
9500,546
9550,542
9600,545
9650,543
9700,548
9750,548
9800,541
9850,537
9900,534
9950,539
10000,546
10050,542
10100,545
10150,543
10200,543
10250,541
10300,532
10350,534
10400,538
10450,546
10500,547
10550,542
10600,546
10650,538
10700,536
10750,546
10800,542
10850,545
10900,543
10950,543
11000,541
11050,532
11100,534
11150,538
11200,546
11250,547
11300,542
11350,546
11400,538
11450,535
11500,546
11550,534
11600,539
11650,546
11700,542
11750,545
11800,543
11850,543
11900,541
11950,532
12000,534
12050,538
12100,546
12150,547
12200,542
12250,546
12300,538
12350,536
12400,546
12450,542
12500,545
12550,543
12600,543
12650,541
12700,532
12750,534
12800,538
12850,546
12900,547
12950,542
13000,546
13050,538
13100,535
13150,546
13200,534
13250,539
13300,546
13350,542
13400,545
13450,543
13500,543
13550,541
13600,532
13650,534
13700,534
13750,539
13800,546
13850,542
13900,545
13950,543
14000,543
14050,541
14100,532
14150,534
14200,534
14250,539
14300,546
14350,542
14400,545
14450,543
14500,543
14550,541
14600,532
14650,534
14700,536
14750,546
14800,542
14850,545
14900,543
14950,543
15000,541
15050,532
15100,534
15150,538
15200,546
15250,547
15300,542
15350,546
15400,538
15450,535
15500,546
15550,534
15600,539
15650,546
15700,542
15750,545
15800,543
15850,543
15900,541
15950,532
16000,534
16050,542
16100,536
16150,535
16200,534
16250,539
16300,546
16350,542
16400,545
16450,543
16500,548
16550,543
16600,541
16650,531
16700,534
16750,542
16800,536
16850,535
16900,534
16950,539
17000,546
17050,543
17100,545
17150,543
17200,548
17250,534
17300,534
17350,539
17400,546
17450,542
17500,545
17550,543
17600,543
17650,541
17700,532
17750,534
17800,534
17850,539
17900,546
17950,542
18000,545
18050,543
18100,543
18150,541
18200,532
18250,534
18300,534
18350,539
18400,546
18450,542
18500,545
18550,543
18600,543
18650,541
18700,532
18750,534
18800,534
18850,539
18900,546
18950,542
19000,545
19050,543
19100,543
19150,541
19200,532
19250,543
19300,541
19350,532
19400,534
19450,538
19500,546
19550,547
19600,542
19650,546
19700,538
19750,535
19800,546
19850,534
19900,539
19950,546
20000,542
20050,545
20100,543
20150,543
20200,541
20250,532
20300,534
20350,542
20400,536
20450,535
20500,534
20550,539
20600,546
20650,542
20700,545
20750,543
20800,548
20850,543
20900,541
20950,531
21000,534
21050,542
21100,536
21150,535
21200,534
21250,539
21300,546
21350,543
21400,545
21450,543
21500,548
21550,534
21600,534
21650,539
21700,546
21750,542
21800,545
21850,543
21900,543
21950,541
22000,532
22050,534
22100,534
22150,539
22200,546
22250,542
22300,545
22350,543
22400,543
22450,541
22500,532
22550,534
22600,534
22650,539
22700,546
22750,542
22800,545
22850,543
22900,543
22950,541
23000,532
23050,534
23100,534
23150,539
23200,546
23250,542
23300,545
23350,545
23400,543
23450,543
23500,541
23550,532
23600,534
23650,534
23700,539
23750,536
23800,532
23850,535
23900,533
23950,533
24000,532
24050,532
24100,534
24150,534
24200,537
24250,536
24300,532
24350,534
24400,536
24450,532
24500,534
24550,534
24600,534
24650,532
24700,535
24750,533
24800,533
24850,533
24900,537
24950,536